EDA
…
Using the data we are analyzing what factors affect diabetes. We will look at some key variables and analyze their relationship with diabetes occurrence. Diabetes_binary variable gives us the diabetes or not. We will analyze the following variables against the Diabetes_binary variable: - BMI: This variable provides the body mass index - Age: This variable provides the age group - Income: This variable provides the income range - GenHlth: This variable provides the general health category - PhysActivity: This variable provides whether there was physical activity in the past 30 days - HighChol: This variable provides the cholesterol level

diabetes_data <- read_csv("diabetes_binary_health_indicators_BRFSS2015.csv")

Rows: 253680 Columns: 22
── Column specification ────────────────────────────────────────────────────────
Delimiter: ","
dbl (22): Diabetes_binary, HighBP, HighChol, CholCheck, BMI, Smoker, Stroke,...

ℹ Use `spec()` to retrieve the full column specification for this data.
ℹ Specify the column types or set `show_col_types = FALSE` to quiet this message.

diabetes_data

# A tibble: 253,680 × 22
   Diabetes_binary HighBP HighChol CholCheck   BMI Smoker Stroke
             <dbl>  <dbl>    <dbl>     <dbl> <dbl>  <dbl>  <dbl>
 1               0      1        1         1    40      1      0
 2               0      0        0         0    25      1      0
 3               0      1        1         1    28      0      0
 4               0      1        0         1    27      0      0
 5               0      1        1         1    24      0      0
 6               0      1        1         1    25      1      0
 7               0      1        0         1    30      1      0
 8               0      1        1         1    25      1      0
 9               1      1        1         1    30      1      0
10               0      0        0         1    24      0      0
# ℹ 253,670 more rows
# ℹ 15 more variables: HeartDiseaseorAttack <dbl>, PhysActivity <dbl>,
#   Fruits <dbl>, Veggies <dbl>, HvyAlcoholConsump <dbl>, AnyHealthcare <dbl>,
#   NoDocbcCost <dbl>, GenHlth <dbl>, MentHlth <dbl>, PhysHlth <dbl>,
#   DiffWalk <dbl>, Sex <dbl>, Age <dbl>, Education <dbl>, Income <dbl>
…
    DiffWalk = factor(DiffWalk, levels=c(0,1),
                       labels = c("Not Difficult","Difficult")),
    Sex = factor(Sex, levels=c(0,1),
                 labels = c("Female","Male")),
    Age = factor(Age, levels = 1:13, 
                labels = c("18-24", "25-29", "30-34", "35-39", "40-44",
                           "45-49","50-54","55-59","60-64","65-69","70-74","75-79",">=80")),
    Education = factor(Education, levels = 1:6,
                        labels = c("No school or only K", "Grades 1-8", "Grades 9-11","Grade 12 or GED", "College 1-3 yrs", "College 4 yrs or more")),
    Income = factor(Income, levels = 1:8, 
                    labels = c(" <$10000", " >=10000 & <15000", ">=15000 & <20000", ">=20000 & <25000", ">=25000 & <35000", ">=35000 & <50000", ">=50000 & <75000", ">=75000"))
  )
diabetes_bin

# A tibble: 253,680 × 22
   Diabetes_binary HighBP     HighChol           CholCheck     BMI Smoker Stroke
   <fct>           <fct>      <fct>              <fct>       <dbl> <fct>  <fct> 
 1 No diabetes     High BP    High colesterol    Yes check …    40 Yes    No    
 2 No diabetes     No High BP No high colesterol No check i…    25 Yes    No    
 3 No diabetes     High BP    High colesterol    Yes check …    28 No     No    
 4 No diabetes     High BP    No high colesterol Yes check …    27 No     No    
 5 No diabetes     High BP    High colesterol    Yes check …    24 No     No    
 6 No diabetes     High BP    High colesterol    Yes check …    25 Yes    No    
 7 No diabetes     High BP    No high colesterol Yes check …    30 Yes    No    
 8 No diabetes     High BP    High colesterol    Yes check …    25 Yes    No    
 9 Diabetes        High BP    High colesterol    Yes check …    30 Yes    No    
10 No diabetes     No High BP No high colesterol Yes check …    24 No     No    
# ℹ 253,670 more rows
# ℹ 15 more variables: HeartDiseaseorAttack <fct>, PhysActivity <fct>,
#   Fruits <fct>, Veggies <fct>, HvyAlcoholConsump <fct>, AnyHealthcare <fct>,
#   NoDocbcCost <fct>, GenHlth <fct>, MentHlth <dbl>, PhysHlth <dbl>,
#   DiffWalk <fct>, Sex <fct>, Age <fct>, Education <fct>, Income <fct>
…
