Modeling
…
diabetes_bin_cv <-vfold_cv(diabetes_bin_train, 5)

Creating recipe

tree_recipe <- recipe(Diabetes_binary ~ BMI + Age + Sex + PhysActivity + HighChol + GenHlth , 
                      data = diabetes_bin) |>
  step_normalize(BMI) |>
  step_dummy(Age, Sex, PhysActivity, HighChol, GenHlth)

tree_recipe |>
  prep(diabetes_bin_train) |>
  bake(diabetes_bin_train)

# A tibble: 177,576 × 21
      BMI Diabetes_binary Age_X25.29 Age_X30.34 Age_X35.39 Age_X40.44 Age_X45.49
    <dbl> <fct>                <dbl>      <dbl>      <dbl>      <dbl>      <dbl>
 1 -0.663 No diabetes              0          0          0          1          0
 2 -1.57  No diabetes              0          0          1          0          0
 3 -0.813 No diabetes              0          0          0          0          0
 4  0.241 No diabetes              0          0          0          0          0
 5 -0.512 No diabetes              0          0          0          0          0
 6 -0.361 No diabetes              0          0          0          0          0
 7 -1.27  No diabetes              1          0          0          0          0
 8 -0.964 No diabetes              0          0          0          0          0
 9 -0.361 No diabetes              0          0          0          0          1
10 -0.813 Diabetes                 0          0          0          0          0
# ℹ 177,566 more rows
# ℹ 14 more variables: Age_X50.54 <dbl>, Age_X55.59 <dbl>, Age_X60.64 <dbl>,
#   Age_X65.69 <dbl>, Age_X70.74 <dbl>, Age_X75.79 <dbl>, Age_X..80 <dbl>,
#   Sex_Male <dbl>, PhysActivity_Yes <dbl>, HighChol_High.colesterol <dbl>,
#   GenHlth_Very.good <dbl>, GenHlth_Good <dbl>, GenHlth_Fair <dbl>,
#   GenHlth_Poor <dbl>
…
